^\\CODD.SIS.VIRTUAL.UNIANDES.EDU.CO\ESTUDIANTES\PROFILES\KA.BABATIVA\DOCUMENTS\INFRATEC\PROYECTO\PROYECTO\DEBUG\ESQUELETO.OBJ
\\CODD.SIS.VIRTUAL.UNIANDES.EDU.CO\ESTUDIANTES\PROFILES\KA.BABATIVA\DOCUMENTS\INFRATEC\PROYECTO\DEBUG\PROYECTO.ILK
\\CODD.SIS.VIRTUAL.UNIANDES.EDU.CO\ESTUDIANTES\PROFILES\KA.BABATIVA\DOCUMENTS\INFRATEC\PROYECTO\DEBUG\PROYECTO.EXE
\\CODD.SIS.VIRTUAL.UNIANDES.EDU.CO\ESTUDIANTES\PROFILES\KA.BABATIVA\DOCUMENTS\INFRATEC\PROYECTO\PROYECTO\DEBUG\PROYECTO.EXE.INTERMEDIATE.MANIFEST
\\CODD.SIS.VIRTUAL.UNIANDES.EDU.CO\ESTUDIANTES\PROFILES\KA.BABATIVA\DOCUMENTS\INFRATEC\PROYECTO\DEBUG\PROYECTO.PDB
